ds2
…
The geom_abline() function adds a line that shows the trend of the data.

Exercise 5.2.4

Exercise 1

Find all flights that had an arrival delay of two or more hours.

filter(flights, arr_delay >= 120)

# A tibble: 10,200 × 19
    year month   day dep_time sched_dep_time dep_delay arr_time sched_arr_time
   <int> <int> <int>    <int>          <int>     <dbl>    <int>          <int>
 1  2013     1     1      811            630       101     1047            830
 2  2013     1     1      848           1835       853     1001           1950
 3  2013     1     1      957            733       144     1056            853
 4  2013     1     1     1114            900       134     1447           1222
 5  2013     1     1     1505           1310       115     1638           1431
 6  2013     1     1     1525           1340       105     1831           1626
 7  2013     1     1     1549           1445        64     1912           1656
 8  2013     1     1     1558           1359       119     1718           1515
 9  2013     1     1     1732           1630        62     2028           1825
10  2013     1     1     1803           1620       103     2008           1750
# ℹ 10,190 more rows
# ℹ 11 more variables: arr_delay <dbl>, carrier <chr>, flight <int>,
#   tailnum <chr>, origin <chr>, dest <chr>, air_time <dbl>, distance <dbl>,
#   hour <dbl>, minute <dbl>, time_hour <dttm>

Find all flights that flew to Houston (IAH or HOU).

filter(flights, dest == "IAH" | dest == "HOU")

# A tibble: 9,313 × 19
    year month   day dep_time sched_dep_time dep_delay arr_time sched_arr_time
   <int> <int> <int>    <int>          <int>     <dbl>    <int>          <int>
 1  2013     1     1      517            515         2      830            819
 2  2013     1     1      533            529         4      850            830
 3  2013     1     1      623            627        -4      933            932
 4  2013     1     1      728            732        -4     1041           1038
 5  2013     1     1      739            739         0     1104           1038
 6  2013     1     1      908            908         0     1228           1219
 7  2013     1     1     1028           1026         2     1350           1339
 8  2013     1     1     1044           1045        -1     1352           1351
 9  2013     1     1     1114            900       134     1447           1222
10  2013     1     1     1205           1200         5     1503           1505
# ℹ 9,303 more rows
# ℹ 11 more variables: arr_delay <dbl>, carrier <chr>, flight <int>,
#   tailnum <chr>, origin <chr>, dest <chr>, air_time <dbl>, distance <dbl>,
#   hour <dbl>, minute <dbl>, time_hour <dttm>

Find all flights that were operated by United, American, or Delta.

filter(flights, carrier == "UA" | carrier == "AA" | carrier == "DL")

# A tibble: 139,504 × 19
    year month   day dep_time sched_dep_time dep_delay arr_time sched_arr_time
   <int> <int> <int>    <int>          <int>     <dbl>    <int>          <int>
 1  2013     1     1      517            515         2      830            819
 2  2013     1     1      533            529         4      850            830
 3  2013     1     1      542            540         2      923            850
 4  2013     1     1      554            600        -6      812            837
 5  2013     1     1      554            558        -4      740            728
 6  2013     1     1      558            600        -2      753            745
 7  2013     1     1      558            600        -2      924            917
 8  2013     1     1      558            600        -2      923            937
 9  2013     1     1      559            600        -1      941            910
10  2013     1     1      559            600        -1      854            902
# ℹ 139,494 more rows
# ℹ 11 more variables: arr_delay <dbl>, carrier <chr>, flight <int>,
#   tailnum <chr>, origin <chr>, dest <chr>, air_time <dbl>, distance <dbl>,
#   hour <dbl>, minute <dbl>, time_hour <dttm>

Find all flights that departed in summer (July, August, and September).

filter(flights, month == 7 | month == 8 | month == 9)

# A tibble: 86,326 × 19
    year month   day dep_time sched_dep_time dep_delay arr_time sched_arr_time
   <int> <int> <int>    <int>          <int>     <dbl>    <int>          <int>
 1  2013     7     1        1           2029       212      236           2359
 2  2013     7     1        2           2359         3      344            344
 3  2013     7     1       29           2245       104      151              1
 4  2013     7     1       43           2130       193      322             14
 5  2013     7     1       44           2150       174      300            100
 6  2013     7     1       46           2051       235      304           2358
 7  2013     7     1       48           2001       287      308           2305
 8  2013     7     1       58           2155       183      335             43
 9  2013     7     1      100           2146       194      327             30
10  2013     7     1      100           2245       135      337            135
# ℹ 86,316 more rows
# ℹ 11 more variables: arr_delay <dbl>, carrier <chr>, flight <int>,
#   tailnum <chr>, origin <chr>, dest <chr>, air_time <dbl>, distance <dbl>,
#   hour <dbl>, minute <dbl>, time_hour <dttm>

Find all flights that arrived more than two hours late, but didn’t leave late.

filter(flights, arr_delay > 120 & dep_delay <= 0)

# A tibble: 29 × 19
    year month   day dep_time sched_dep_time dep_delay arr_time sched_arr_time
   <int> <int> <int>    <int>          <int>     <dbl>    <int>          <int>
 1  2013     1    27     1419           1420        -1     1754           1550
 2  2013    10     7     1350           1350         0     1736           1526
 3  2013    10     7     1357           1359        -2     1858           1654
 4  2013    10    16      657            700        -3     1258           1056
 5  2013    11     1      658            700        -2     1329           1015
 6  2013     3    18     1844           1847        -3       39           2219
 7  2013     4    17     1635           1640        -5     2049           1845
 8  2013     4    18      558            600        -2     1149            850
 9  2013     4    18      655            700        -5     1213            950
10  2013     5    22     1827           1830        -3     2217           2010
# ℹ 19 more rows
# ℹ 11 more variables: arr_delay <dbl>, carrier <chr>, flight <int>,
#   tailnum <chr>, origin <chr>, dest <chr>, air_time <dbl>, distance <dbl>,
#   hour <dbl>, minute <dbl>, time_hour <dttm>

Find all flights that were delayed by at least an hour, but made up over 30 minutes in flight.

filter(flights, dep_delay >= 60 & arr_delay <= dep_delay - 30)

# A tibble: 2,074 × 19
    year month   day dep_time sched_dep_time dep_delay arr_time sched_arr_time
   <int> <int> <int>    <int>          <int>     <dbl>    <int>          <int>
 1  2013     1     1     1716           1545        91     2140           2039
 2  2013     1     1     2205           1720       285       46           2040
 3  2013     1     1     2326           2130       116      131             18
 4  2013     1     3     1503           1221       162     1803           1555
 5  2013     1     3     1821           1530       171     2131           1910
 6  2013     1     3     1839           1700        99     2056           1950
 7  2013     1     3     1850           1745        65     2148           2120
 8  2013     1     3     1923           1815        68     2036           1958
 9  2013     1     3     1941           1759       102     2246           2139
10  2013     1     3     1950           1845        65     2228           2227
# ℹ 2,064 more rows
# ℹ 11 more variables: arr_delay <dbl>, carrier <chr>, flight <int>,
#   tailnum <chr>, origin <chr>, dest <chr>, air_time <dbl>, distance <dbl>,
#   hour <dbl>, minute <dbl>, time_hour <dttm>

Find all flights that departed between midnight and 6am (inclusive).

filter(flights, dep_time <= 600)

# A tibble: 9,344 × 19
    year month   day dep_time sched_dep_time dep_delay arr_time sched_arr_time
   <int> <int> <int>    <int>          <int>     <dbl>    <int>          <int>
 1  2013     1     1      517            515         2      830            819
 2  2013     1     1      533            529         4      850            830
 3  2013     1     1      542            540         2      923            850
 4  2013     1     1      544            545        -1     1004           1022
 5  2013     1     1      554            600        -6      812            837
 6  2013     1     1      554            558        -4      740            728
 7  2013     1     1      555            600        -5      913            854
 8  2013     1     1      557            600        -3      709            723
 9  2013     1     1      557            600        -3      838            846
10  2013     1     1      558            600        -2      753            745
# ℹ 9,334 more rows
# ℹ 11 more variables: arr_delay <dbl>, carrier <chr>, flight <int>,
#   tailnum <chr>, origin <chr>, dest <chr>, air_time <dbl>, distance <dbl>,
#   hour <dbl>, minute <dbl>, time_hour <dttm>

Exercise 3

How many flights have a missing dep_time? What other variables are missing? What might these rows represent?

filter(flights, is.na(dep_time))

# A tibble: 8,255 × 19
    year month   day dep_time sched_dep_time dep_delay arr_time sched_arr_time
   <int> <int> <int>    <int>          <int>     <dbl>    <int>          <int>
 1  2013     1     1       NA           1630        NA       NA           1815
 2  2013     1     1       NA           1935        NA       NA           2240
 3  2013     1     1       NA           1500        NA       NA           1825
 4  2013     1     1       NA            600        NA       NA            901
 5  2013     1     2       NA           1540        NA       NA           1747
 6  2013     1     2       NA           1620        NA       NA           1746
 7  2013     1     2       NA           1355        NA       NA           1459
 8  2013     1     2       NA           1420        NA       NA           1644
 9  2013     1     2       NA           1321        NA       NA           1536
10  2013     1     2       NA           1545        NA       NA           1910
# ℹ 8,245 more rows
# ℹ 11 more variables: arr_delay <dbl>, carrier <chr>, flight <int>,
#   tailnum <chr>, origin <chr>, dest <chr>, air_time <dbl>, distance <dbl>,
#   hour <dbl>, minute <dbl>, time_hour <dttm>

8,255 flights do not have a departure time. These flights are also missing departure delays and arrival times. Since these flights never departed, they were never delayed and never arrived.

Section 5.3.1

Exercise 2

Sort flights to find the most delayed flights.

arrange(flights, desc(dep_delay))

# A tibble: 336,776 × 19
    year month   day dep_time sched_dep_time dep_delay arr_time sched_arr_time
   <int> <int> <int>    <int>          <int>     <dbl>    <int>          <int>
 1  2013     1     9      641            900      1301     1242           1530
 2  2013     6    15     1432           1935      1137     1607           2120
 3  2013     1    10     1121           1635      1126     1239           1810
 4  2013     9    20     1139           1845      1014     1457           2210
 5  2013     7    22      845           1600      1005     1044           1815
 6  2013     4    10     1100           1900       960     1342           2211
 7  2013     3    17     2321            810       911      135           1020
 8  2013     6    27      959           1900       899     1236           2226
 9  2013     7    22     2257            759       898      121           1026
10  2013    12     5      756           1700       896     1058           2020
# ℹ 336,766 more rows
# ℹ 11 more variables: arr_delay <dbl>, carrier <chr>, flight <int>,
#   tailnum <chr>, origin <chr>, dest <chr>, air_time <dbl>, distance <dbl>,
#   hour <dbl>, minute <dbl>, time_hour <dttm>

Find the flights that left earliest.

arrange(flights, dep_delay)

# A tibble: 336,776 × 19
    year month   day dep_time sched_dep_time dep_delay arr_time sched_arr_time
   <int> <int> <int>    <int>          <int>     <dbl>    <int>          <int>
 1  2013    12     7     2040           2123       -43       40           2352
 2  2013     2     3     2022           2055       -33     2240           2338
 3  2013    11    10     1408           1440       -32     1549           1559
 4  2013     1    11     1900           1930       -30     2233           2243
 5  2013     1    29     1703           1730       -27     1947           1957
 6  2013     8     9      729            755       -26     1002            955
 7  2013    10    23     1907           1932       -25     2143           2143
 8  2013     3    30     2030           2055       -25     2213           2250
 9  2013     3     2     1431           1455       -24     1601           1631
10  2013     5     5      934            958       -24     1225           1309
# ℹ 336,766 more rows
# ℹ 11 more variables: arr_delay <dbl>, carrier <chr>, flight <int>,
#   tailnum <chr>, origin <chr>, dest <chr>, air_time <dbl>, distance <dbl>,
#   hour <dbl>, minute <dbl>, time_hour <dttm>

Exercise 4

Which flights traveled the farthest?

arrange(flights, desc(distance))

# A tibble: 336,776 × 19
    year month   day dep_time sched_dep_time dep_delay arr_time sched_arr_time
   <int> <int> <int>    <int>          <int>     <dbl>    <int>          <int>
 1  2013     1     1      857            900        -3     1516           1530
 2  2013     1     2      909            900         9     1525           1530
 3  2013     1     3      914            900        14     1504           1530
 4  2013     1     4      900            900         0     1516           1530
 5  2013     1     5      858            900        -2     1519           1530
 6  2013     1     6     1019            900        79     1558           1530
 7  2013     1     7     1042            900       102     1620           1530
 8  2013     1     8      901            900         1     1504           1530
 9  2013     1     9      641            900      1301     1242           1530
10  2013     1    10      859            900        -1     1449           1530
# ℹ 336,766 more rows
# ℹ 11 more variables: arr_delay <dbl>, carrier <chr>, flight <int>,
#   tailnum <chr>, origin <chr>, dest <chr>, air_time <dbl>, distance <dbl>,
#   hour <dbl>, minute <dbl>, time_hour <dttm>

Which traveled the shortest?

arrange(flights, distance)

# A tibble: 336,776 × 19
    year month   day dep_time sched_dep_time dep_delay arr_time sched_arr_time
   <int> <int> <int>    <int>          <int>     <dbl>    <int>          <int>
 1  2013     7    27       NA            106        NA       NA            245
 2  2013     1     3     2127           2129        -2     2222           2224
 3  2013     1     4     1240           1200        40     1333           1306
 4  2013     1     4     1829           1615       134     1937           1721
 5  2013     1     4     2128           2129        -1     2218           2224
 6  2013     1     5     1155           1200        -5     1241           1306
 7  2013     1     6     2125           2129        -4     2224           2224
 8  2013     1     7     2124           2129        -5     2212           2224
 9  2013     1     8     2127           2130        -3     2304           2225
10  2013     1     9     2126           2129        -3     2217           2224
# ℹ 336,766 more rows
# ℹ 11 more variables: arr_delay <dbl>, carrier <chr>, flight <int>,
#   tailnum <chr>, origin <chr>, dest <chr>, air_time <dbl>, distance <dbl>,
#   hour <dbl>, minute <dbl>, time_hour <dttm>

Section 5.4.1

Exercise 2

What happens if you include the name of a variable multiple times in a select() call?

select(flights, carrier)

# A tibble: 336,776 × 1
   carrier
   <chr>  
 1 UA     
 2 UA     
 3 AA     
 4 B6     
 5 DL     
 6 UA     
 7 B6     
 8 EV     
 9 B6     
10 AA     
# ℹ 336,766 more rows

This is the result of the select statement for flights on carrier.

select(flights, carrier, carrier)

# A tibble: 336,776 × 1
   carrier
   <chr>  
 1 UA     
 2 UA     
 3 AA     
 4 B6     
 5 DL     
 6 UA     
 7 B6     
 8 EV     
 9 B6     
10 AA     
# ℹ 336,766 more rows

As shown above, including the same variable multiple times does not affect the results.

Exercise 3

What does the any_of() function do? Why might it be helpful in conjunction with this vector?

vars <- c("year", "month", "day", "dep_delay", "arr_delay")

The any_of() function allows you to specify all the variables in a vector.

select(flights, any_of(vars))

# A tibble: 336,776 × 5
    year month   day dep_delay arr_delay
   <int> <int> <int>     <dbl>     <dbl>
 1  2013     1     1         2        11
 2  2013     1     1         4        20
 3  2013     1     1         2        33
 4  2013     1     1        -1       -18
 5  2013     1     1        -6       -25
 6  2013     1     1        -4        12
 7  2013     1     1        -5        19
 8  2013     1     1        -3       -14
 9  2013     1     1        -3        -8
10  2013     1     1        -2         8
# ℹ 336,766 more rows

When the any_of() function is applied to the previous vector in a select statement, it gives the results shown above without needing to type everything out again.

Section 5.5.2

Exercise 1

Currently dep_time and sched_dep_time are convenient to look at, but hard to compute with because they’re not really continuous numbers. Convert them to a more convenient representation of number of minutes since midnight.

flights1 <- flights
transmute(flights1, dep_time = 60 * dep_time %/% 100 + dep_time %% 100, sched_dep_time = 60 * sched_dep_time %/% 100 + sched_dep_time %% 100)

# A tibble: 336,776 × 2
   dep_time sched_dep_time
      <dbl>          <dbl>
 1      317            315
 2      333            329
 3      342            340
 4      344            345
 5      354            360
 6      354            358
 7      355            360
 8      357            360
 9      357            360
10      358            360
# ℹ 336,766 more rows

The above formula can be used to convert dep_time and sched_dep_time to minutes.

Exercise 3

Compare dep_time, sched_dep_time, and dep_delay. How would you expect those three numbers to be related?

flights1 <- flights
transmute(flights1, dep_time, sched_dep_time, dep_delay, dep_time - sched_dep_time)

# A tibble: 336,776 × 4
   dep_time sched_dep_time dep_delay `dep_time - sched_dep_time`
      <int>          <int>     <dbl>                       <int>
 1      517            515         2                           2
 2      533            529         4                           4
 3      542            540         2                           2
 4      544            545        -1                          -1
 5      554            600        -6                         -46
 6      554            558        -4                          -4
 7      555            600        -5                         -45
 8      557            600        -3                         -43
 9      557            600        -3                         -43
10      558            600        -2                         -42
# ℹ 336,766 more rows
…
