ds5
…
As can be seen, the Power 5 stadiums follow the general trend of newer stadiums being smaller than older ones. The only notable difference between this plot and the previous plot is that the average capacity is a bit higher. To get a closer look at Power 5 stadiums, we can look at the ten largest and smallest power 5 stadiums.

select(arrange(p5, desc(Capacity)), School, Conference, Stadium, Capacity, Opening)

# A tibble: 70 × 5
   School     Conference Stadium                    Capacity Opening
   <chr>      <chr>      <chr>                         <dbl>   <dbl>
 1 Michigan   Big Ten    Michigan Stadium             107601    1927
 2 Penn State Big Ten    Beaver Stadium               106572    1960
 3 Ohio State Big Ten    Ohio Stadium                 102780    1922
 4 Texas A&M  SEC        Kyle Field                   102733    1927
 5 Tennessee  SEC        Neyland Stadium              102455    1921
 6 LSU        SEC        Tiger Stadium (LA)           102321    1924
 7 Alabama    SEC        Bryant-Denny Stadium         101821    1929
 8 Texas      SEC        DKR-Texas Memorial Stadium   100119    1924
 9 Georgia    SEC        Sanford Stadium               92746    1929
10 UCLA       Big Ten    Rose Bowl                     88565    1922
# ℹ 60 more rows

As shown in the above table, Beaver Stadium is the only one of the ten largest Power 5 stadiums to open since 1930. This makes it a bit of an outlier, but it still opened over 60 years ago. There are some other interesting things that can be seen from this data. First of all, all of these stadiums are in either the Big Ten or SEC. This makes sense as they are the two most prestigious conferences in college football. Speaking of prestige, these are ten of the most prestigious schools in college football. All of them have at least one national championship, and all of them except for UCLA have at least three. Another anomaly with UCLA is that they are the only school on this list that does not play on campus. Their home stadium, the Rose Bowl, is more notably known as the home of the famous bowl game of the same name.

select(arrange(p5, Capacity), School, Conference, Stadium, Capacity, Opening)

# A tibble: 70 × 5
   School           Conference Stadium                          Capacity Opening
   <chr>            <chr>      <chr>                               <dbl>   <dbl>
 1 Wake Forest      ACC        Allegacy Federal Credit Union S…    31500    1968
 2 SMU              ACC        Gerald J. Ford Stadium              32000    2000
 3 Washington State Pac-12     Gesa Field                          32952    1972
 4 Cincinnati       Big 12     Nippert Stadium                     40000    1915
 5 Houston          Big 12     TDECU Stadium                       40000    2014
 6 Duke             ACC        Wallace Wade Stadium                40004    1929
 7 Vanderbilt       SEC        FirstBank Stadium                   40351    1922
 8 Oregon State     Pac-12     Reser Stadium                       43363    1953
 9 UCF              Big 12     FBC Mortgage Stadium                44206    2007
10 Boston College   ACC        Alumni Stadium (Chestnut Hill, …    44500    1957
# ℹ 60 more rows
…
Surprisingly, Group of 5 stadiums do not follow the same trend as the previous two plots. Instead, the capacities of Group of 5 stadiums has remained rather steady throughout the years with newer stadiums actually being slightly larger than older ones. This is certainly an interesting contrast, and it begs the question of why the trend is different. To get a closer look at why this is, we can look at the ten largest and smallest Group of 5 stadiums.

select(arrange(go5, desc(Capacity)), School, Conference, Stadium, Capacity, Opening)

# A tibble: 64 × 5
   School        Conference        Stadium                      Capacity Opening
   <chr>         <chr>             <chr>                           <dbl>   <dbl>
 1 Temple        American Athletic Lincoln Financial Field         69879    2003
 2 South Florida American Athletic Raymond James Stadium           65828    1998
 3 UNLV          Mountain West     Allegiant Stadium               65000    2020
 4 Memphis       American Athletic Simmons Bank Liberty Stadium    58325    1965
 5 UTEP          Conference USA    Sun Bowl                        51500    1963
 6 East Carolina American Athletic Dowdy-Ficklen Stadium           50000    1963
 7 UAB           American Athletic Protective Stadium              47100    2021
 8 Rice          American Athletic Rice Stadium                    47000    1950
 9 Air Force     Mountain West     Falcon Stadium                  46692    1962
10 Louisiana     Sun Belt West     Cajun Field                     41426    1971
# ℹ 54 more rows

As shown in the table above, the ten largest Group of 5 stadiums are much newer than the ten largest Power 5 stadiums with three of them opening since 2000 and all of them opening since 1950. The reasoning behind this becomes clear with a bit of research. The three largest stadiums on here are all NFL stadiums with all of them opening since 1998. There is no doubt that these three stadiums skew the linear model quite a bit. Memphis and UAB also play in off campus stadiums with UAB having the newest stadium on this list. The on campus stadiums on here are much older by comparison although they are still not as old as the Power 5 stadiums. This makes sense as Group of 5 schools tend to have less established football programs.

select(arrange(go5, Capacity), School, Conference, Stadium, Capacity, Opening)

# A tibble: 64 × 5
   School                Conference        Stadium              Capacity Opening
   <chr>                 <chr>             <chr>                   <dbl>   <dbl>
 1 Kennesaw State        Conference USA    Fifth Third Stadium      8318    2010
 2 Hawai'i               Mountain West     Clarence T.C. Ching…     9000    2015
 3 Sam Houston           Conference USA    Elliott T. Bowers S…    14000    1986
 4 Charlotte             American Athletic Jerry Richardson St…    15300    2013
 5 Massachusetts         FBS Independents  Warren McGuirk Alum…    17000    1965
 6 Florida International Conference USA    FIU Stadium             20000    1995
 7 Old Dominion          Sun Belt East     S.B. Ballard Stadium    20118    1936
 8 Coastal Carolina      Sun Belt East     Brooks Stadium (SC)     21000    2003
 9 Western Kentucky      Conference USA    Houchens Industries…    22113    1968
10 Ball State            Mid-American      Scheumann Stadium       22500    1967
# ℹ 54 more rows
…
