ds4
…
Attaching package: 'maps'

The following object is masked from 'package:purrr':

    map

Section 10.5

Exercise 1

How can you tell if an object is a tibble?

flights

# A tibble: 336,776 × 19
    year month   day dep_time sched_dep_time dep_delay arr_time sched_arr_time
   <int> <int> <int>    <int>          <int>     <dbl>    <int>          <int>
 1  2013     1     1      517            515         2      830            819
 2  2013     1     1      533            529         4      850            830
 3  2013     1     1      542            540         2      923            850
 4  2013     1     1      544            545        -1     1004           1022
 5  2013     1     1      554            600        -6      812            837
 6  2013     1     1      554            558        -4      740            728
 7  2013     1     1      555            600        -5      913            854
 8  2013     1     1      557            600        -3      709            723
 9  2013     1     1      557            600        -3      838            846
10  2013     1     1      558            600        -2      753            745
# ℹ 336,766 more rows
# ℹ 11 more variables: arr_delay <dbl>, carrier <chr>, flight <int>,
#   tailnum <chr>, origin <chr>, dest <chr>, air_time <dbl>, distance <dbl>,
#   hour <dbl>, minute <dbl>, time_hour <dttm>
…
The enframe command converts a vector into a tibble. This can be used if you have data in a vector which you want in a tibble.

Exercise 6

What option controls how many additional column names are printed at the footer of a tibble?

flights

# A tibble: 336,776 × 19
    year month   day dep_time sched_dep_time dep_delay arr_time sched_arr_time
   <int> <int> <int>    <int>          <int>     <dbl>    <int>          <int>
 1  2013     1     1      517            515         2      830            819
 2  2013     1     1      533            529         4      850            830
 3  2013     1     1      542            540         2      923            850
 4  2013     1     1      544            545        -1     1004           1022
 5  2013     1     1      554            600        -6      812            837
 6  2013     1     1      554            558        -4      740            728
 7  2013     1     1      555            600        -5      913            854
 8  2013     1     1      557            600        -3      709            723
 9  2013     1     1      557            600        -3      838            846
10  2013     1     1      558            600        -2      753            745
# ℹ 336,766 more rows
# ℹ 11 more variables: arr_delay <dbl>, carrier <chr>, flight <int>,
#   tailnum <chr>, origin <chr>, dest <chr>, air_time <dbl>, distance <dbl>,
#   hour <dbl>, minute <dbl>, time_hour <dttm>

By default, the flights tibble lists 11 columns in the footer which do not appear in the table.

flights %>% print(width = Inf)

# A tibble: 336,776 × 19
    year month   day dep_time sched_dep_time dep_delay arr_time sched_arr_time
   <int> <int> <int>    <int>          <int>     <dbl>    <int>          <int>
 1  2013     1     1      517            515         2      830            819
 2  2013     1     1      533            529         4      850            830
 3  2013     1     1      542            540         2      923            850
 4  2013     1     1      544            545        -1     1004           1022
 5  2013     1     1      554            600        -6      812            837
 6  2013     1     1      554            558        -4      740            728
 7  2013     1     1      555            600        -5      913            854
 8  2013     1     1      557            600        -3      709            723
 9  2013     1     1      557            600        -3      838            846
10  2013     1     1      558            600        -2      753            745
   arr_delay carrier flight tailnum origin dest  air_time distance  hour minute
       <dbl> <chr>    <int> <chr>   <chr>  <chr>    <dbl>    <dbl> <dbl>  <dbl>
 1        11 UA        1545 N14228  EWR    IAH        227     1400     5     15
 2        20 UA        1714 N24211  LGA    IAH        227     1416     5     29
 3        33 AA        1141 N619AA  JFK    MIA        160     1089     5     40
 4       -18 B6         725 N804JB  JFK    BQN        183     1576     5     45
 5       -25 DL         461 N668DN  LGA    ATL        116      762     6      0
 6        12 UA        1696 N39463  EWR    ORD        150      719     5     58
 7        19 B6         507 N516JB  EWR    FLL        158     1065     6      0
 8       -14 EV        5708 N829AS  LGA    IAD         53      229     6      0
 9        -8 B6          79 N593JB  JFK    MCO        140      944     6      0
10         8 AA         301 N3ALAA  LGA    ORD        138      733     6      0
   time_hour          
   <dttm>             
 1 2013-01-01 05:00:00
 2 2013-01-01 05:00:00
 3 2013-01-01 05:00:00
 4 2013-01-01 05:00:00
 5 2013-01-01 06:00:00
 6 2013-01-01 05:00:00
 7 2013-01-01 06:00:00
 8 2013-01-01 06:00:00
 9 2013-01-01 06:00:00
10 2013-01-01 06:00:00
# ℹ 336,766 more rows
…
Setting fill to “left” skips the first element in the second row instead of the last one. This results in the element of that row being listed as NA.

Section 12.6.1

Exercise 2

What happens if you neglect the mutate() step? (mutate(names_from = stringr::str_replace(key, “newrel”, “new_rel”)))

who %>% pivot_longer(cols = new_sp_m014:newrel_f65, names_to = "key", values_to = "cases", values_drop_na = TRUE) %>% separate(key, c("new", "var", "sexage")) %>% select(-new, -iso2, -iso3) %>% separate(sexage, c("sex", "age"), sep = 1)

Warning: Expected 3 pieces. Missing pieces filled with `NA` in 2580 rows [243, 244, 679,
680, 681, 682, 683, 684, 685, 686, 687, 688, 689, 690, 691, 692, 903, 904, 905,
906, ...].

# A tibble: 76,046 × 6
   country      year var   sex   age   cases
   <chr>       <dbl> <chr> <chr> <chr> <dbl>
 1 Afghanistan  1997 sp    m     014       0
 2 Afghanistan  1997 sp    m     1524     10
 3 Afghanistan  1997 sp    m     2534      6
 4 Afghanistan  1997 sp    m     3544      3
 5 Afghanistan  1997 sp    m     4554      5
 6 Afghanistan  1997 sp    m     5564      2
 7 Afghanistan  1997 sp    m     65        0
 8 Afghanistan  1997 sp    f     014       5
 9 Afghanistan  1997 sp    f     1524     38
10 Afghanistan  1997 sp    f     2534     36
# ℹ 76,036 more rows

Removing the mutate function gives a warning that several pieces are missing.

who %>% pivot_longer(cols = new_sp_m014:newrel_f65, names_to = "key", values_to = "cases", values_drop_na = TRUE) %>% mutate(key = stringr::str_replace(key, "newrel", "new_rel")) %>% separate(key, c("new", "var", "sexage")) %>% select(-new, -iso2, -iso3) %>% separate(sexage, c("sex", "age"), sep = 1)

# A tibble: 76,046 × 6
   country      year var   sex   age   cases
   <chr>       <dbl> <chr> <chr> <chr> <dbl>
 1 Afghanistan  1997 sp    m     014       0
 2 Afghanistan  1997 sp    m     1524     10
 3 Afghanistan  1997 sp    m     2534      6
 4 Afghanistan  1997 sp    m     3544      3
 5 Afghanistan  1997 sp    m     4554      5
 6 Afghanistan  1997 sp    m     5564      2
 7 Afghanistan  1997 sp    m     65        0
 8 Afghanistan  1997 sp    f     014       5
 9 Afghanistan  1997 sp    f     1524     38
10 Afghanistan  1997 sp    f     2534     36
# ℹ 76,036 more rows

Adding the mutate function back in removes this warning.

Section 13.4.6

Exercise 2

Add the location of the origin and destination (i.e. the lat and lon) to flights.

flights %>% left_join(airports, c("origin" = "faa")) %>% left_join(airports, c("dest" = "faa"))

# A tibble: 336,776 × 33
    year month   day dep_time sched_dep_time dep_delay arr_time sched_arr_time
   <int> <int> <int>    <int>          <int>     <dbl>    <int>          <int>
 1  2013     1     1      517            515         2      830            819
 2  2013     1     1      533            529         4      850            830
 3  2013     1     1      542            540         2      923            850
 4  2013     1     1      544            545        -1     1004           1022
 5  2013     1     1      554            600        -6      812            837
 6  2013     1     1      554            558        -4      740            728
 7  2013     1     1      555            600        -5      913            854
 8  2013     1     1      557            600        -3      709            723
 9  2013     1     1      557            600        -3      838            846
10  2013     1     1      558            600        -2      753            745
# ℹ 336,766 more rows
# ℹ 25 more variables: arr_delay <dbl>, carrier <chr>, flight <int>,
#   tailnum <chr>, origin <chr>, dest <chr>, air_time <dbl>, distance <dbl>,
#   hour <dbl>, minute <dbl>, time_hour <dttm>, name.x <chr>, lat.x <dbl>,
#   lon.x <dbl>, alt.x <dbl>, tz.x <dbl>, dst.x <chr>, tzone.x <chr>,
#   name.y <chr>, lat.y <dbl>, lon.y <dbl>, alt.y <dbl>, tz.y <dbl>,
#   dst.y <chr>, tzone.y <chr>

Using two left joins to map both “origin” and “dest” to “faa” adds the location of both origin and destination to flights.

Section 15.4.1

Exercise 1

arrange(gss_cat, desc(tvhours))

# A tibble: 21,483 × 9
    year marital         age race  rincome        partyid    relig denom tvhours
   <int> <fct>         <int> <fct> <fct>          <fct>      <fct> <fct>   <int>
 1  2000 Never married    30 Black Not applicable Independe… Prot… Bapt…      24
 2  2000 Separated        45 Black Not applicable Ind,near … Prot… Other      24
 3  2002 Never married    33 White $6000 to 6999  Independe… Cath… Not …      24
 4  2006 Divorced         53 Black Not applicable Strong de… Prot… Sout…      24
 5  2008 Divorced         50 Black No answer      Ind,near … Prot… Bapt…      24
 6  2008 Never married    44 White Not applicable Independe… Prot… Other      24
 7  2008 Never married    21 White Don't know     Independe… Cath… Not …      24
 8  2008 Widowed          71 White Not applicable Strong de… Prot… Don'…      24
 9  2010 Widowed          62 Black Not applicable Strong de… Prot… Am b…      24
10  2010 Widowed          52 Black Refused        Strong de… Prot… Bapt…      24
# ℹ 21,473 more rows
…
[1] "604800s (~1 weeks)"

dyears(1)

[1] "31557600s (~1 years)"

Unlike seconds, minutes, hours, days, weeks, and years, months do not have a set length. A month could be anywhere from 28 to 31 days.

Exercise 2

Explain days(overnight * 1) to someone who has just started learning R. How does it work?

flights_dt %>% mutate(overnight = arr_time < dep_time, arr_time = arr_time + days(overnight * 1), sched_arr_time = sched_arr_time + days(overnight * 1))

# A tibble: 328,063 × 10
   origin dest  dep_delay arr_delay dep_time            sched_dep_time     
   <chr>  <chr>     <dbl>     <dbl> <dttm>              <dttm>             
 1 EWR    IAH           2        11 2013-01-01 05:17:00 2013-01-01 05:15:00
 2 LGA    IAH           4        20 2013-01-01 05:33:00 2013-01-01 05:29:00
 3 JFK    MIA           2        33 2013-01-01 05:42:00 2013-01-01 05:40:00
 4 JFK    BQN          -1       -18 2013-01-01 05:44:00 2013-01-01 05:45:00
 5 LGA    ATL          -6       -25 2013-01-01 05:54:00 2013-01-01 06:00:00
 6 EWR    ORD          -4        12 2013-01-01 05:54:00 2013-01-01 05:58:00
 7 EWR    FLL          -5        19 2013-01-01 05:55:00 2013-01-01 06:00:00
 8 LGA    IAD          -3       -14 2013-01-01 05:57:00 2013-01-01 06:00:00
 9 JFK    MCO          -3        -8 2013-01-01 05:57:00 2013-01-01 06:00:00
10 LGA    ORD          -2         8 2013-01-01 05:58:00 2013-01-01 06:00:00
# ℹ 328,053 more rows
# ℹ 4 more variables: arr_time <dttm>, sched_arr_time <dttm>, air_time <dbl>,
#   overnight <lgl>
…
Besides that column, every column after that also includes “Location” at the beginning of its name. Since there is no longer a “Location Name” column, that word does not really fit in the rest of the columns. Those columns do not need that word to describe what they are referring to anyway. Therefore, it would be best to remove that word from those columns.

fbs <- rename_with(fbs, ~str_remove(., "Location "))
fbs %>% print(width = Inf)

# A tibble: 134 × 19
   School         Mascot        Abbreviation Conference        Color  
   <chr>          <chr>         <chr>        <chr>             <chr>  
 1 Air Force      Falcons       AFA          Mountain West     #004a7b
 2 Akron          Zips          AKR          Mid-American      #00285e
 3 Alabama        Crimson Tide  ALA          SEC               #9e1632
 4 App State      Mountaineers  APP          Sun Belt East     #ffcc00
 5 Arizona        Wildcats      ARIZ         Big 12            #0c234b
 6 Arizona State  Sun Devils    ASU          Big 12            #8e0c3a
 7 Arkansas       Razorbacks    ARK          SEC               #a41f35
 8 Arkansas State Red Wolves    ARST         Sun Belt West     #e81018
 9 Army           Black Knights ARMY         American Athletic #ce9c00
10 Auburn         Tigers        AUB          SEC               #002b5c
   `Alt Color` Twitter          Stadium                  City             State
   <chr>       <chr>            <chr>                    <chr>            <chr>
 1 #ffffff     @AF_Football     Falcon Stadium           Colorado Springs CO   
 2 #84754e     @ZipsFB          InfoCision Stadium       Akron            OH   
 3 #ffffff     @AlabamaFTBL     Bryant-Denny Stadium     Tuscaloosa       AL   
 4 #222222     @AppState_FB     Kidd Brewer Stadium      Boone            NC   
 5 #ab0520     @ArizonaFBall    Arizona Stadium          Tucson           AZ   
 6 #ffc72c     @ASUFootball     Mountain America Stadium Tempe            AZ   
 7 #ffffff     @RazorbackFB     Razorback Stadium        Fayetteville     AR   
 8 #000000     @AStateFB        Centennial Bank Stadium  Jonesboro        AR   
 9 #231f20     @ArmyWP_Football Michie Stadium           West Point       NY   
10 #f26522     @AuburnFootball  Jordan-Hare Stadium      Auburn           AL   
     Zip Timezone         Latitude Longitude Elevation Capacity
   <dbl> <chr>               <dbl>     <dbl>     <dbl>    <dbl>
 1 80840 America/Denver       39.0    -105.     2025.     46692
 2 44399 America/New_York     41.1     -81.5     321.     30000
 3 35487 America/Chicago      33.2     -87.6      70.1   101821
 4 28608 America/New_York     36.2     -81.7     991.     30000
 5 85721 America/Phoenix      32.2    -111.      742.     50782
 6 85287 America/Phoenix      33.4    -112.      360.     65870
 7 72702 America/Chicago      36.1     -94.2     404.     80000
 8 72404 America/Chicago      35.8     -90.7      89.5    30382
 9 10996 America/New_York     41.4     -74.0      99.2    38000
10 36849 America/Chicago      32.6     -85.5     201.     87451
   `Year Constructed` Grass Dome 
                <dbl> <lgl> <lgl>
 1               1962 FALSE FALSE
 2               2009 FALSE FALSE
 3               1929 TRUE  FALSE
 4               1962 FALSE FALSE
 5               1928 FALSE FALSE
 6               1958 TRUE  FALSE
 7               1938 FALSE FALSE
 8               1974 FALSE FALSE
 9               1924 FALSE FALSE
10               1939 TRUE  FALSE
# ℹ 124 more rows

Once this word is removed, there are still two column names left with multiple words and, by extension, quotation marks. The data would look much nicer without those quotation marks, so it would be best to turn those column names into one word. The first column name that needs to be changed is “Alt Color”. The best way to change it to one word while still distinguishing it from the “Color” column is to change “Color” to “Color1” and change “Alt Color” to “Color2”

fbs <- rename(fbs, "Color1" = "Color")
fbs <- rename(fbs, "Color2" = "Alt Color")
fbs %>% print(width = Inf)

# A tibble: 134 × 19
   School         Mascot        Abbreviation Conference        Color1  Color2 
   <chr>          <chr>         <chr>        <chr>             <chr>   <chr>  
 1 Air Force      Falcons       AFA          Mountain West     #004a7b #ffffff
 2 Akron          Zips          AKR          Mid-American      #00285e #84754e
 3 Alabama        Crimson Tide  ALA          SEC               #9e1632 #ffffff
 4 App State      Mountaineers  APP          Sun Belt East     #ffcc00 #222222
 5 Arizona        Wildcats      ARIZ         Big 12            #0c234b #ab0520
 6 Arizona State  Sun Devils    ASU          Big 12            #8e0c3a #ffc72c
 7 Arkansas       Razorbacks    ARK          SEC               #a41f35 #ffffff
 8 Arkansas State Red Wolves    ARST         Sun Belt West     #e81018 #000000
 9 Army           Black Knights ARMY         American Athletic #ce9c00 #231f20
10 Auburn         Tigers        AUB          SEC               #002b5c #f26522
   Twitter          Stadium                  City             State   Zip
   <chr>            <chr>                    <chr>            <chr> <dbl>
 1 @AF_Football     Falcon Stadium           Colorado Springs CO    80840
 2 @ZipsFB          InfoCision Stadium       Akron            OH    44399
 3 @AlabamaFTBL     Bryant-Denny Stadium     Tuscaloosa       AL    35487
 4 @AppState_FB     Kidd Brewer Stadium      Boone            NC    28608
 5 @ArizonaFBall    Arizona Stadium          Tucson           AZ    85721
 6 @ASUFootball     Mountain America Stadium Tempe            AZ    85287
 7 @RazorbackFB     Razorback Stadium        Fayetteville     AR    72702
 8 @AStateFB        Centennial Bank Stadium  Jonesboro        AR    72404
 9 @ArmyWP_Football Michie Stadium           West Point       NY    10996
10 @AuburnFootball  Jordan-Hare Stadium      Auburn           AL    36849
   Timezone         Latitude Longitude Elevation Capacity `Year Constructed`
   <chr>               <dbl>     <dbl>     <dbl>    <dbl>              <dbl>
 1 America/Denver       39.0    -105.     2025.     46692               1962
 2 America/New_York     41.1     -81.5     321.     30000               2009
 3 America/Chicago      33.2     -87.6      70.1   101821               1929
 4 America/New_York     36.2     -81.7     991.     30000               1962
 5 America/Phoenix      32.2    -111.      742.     50782               1928
 6 America/Phoenix      33.4    -112.      360.     65870               1958
 7 America/Chicago      36.1     -94.2     404.     80000               1938
 8 America/Chicago      35.8     -90.7      89.5    30382               1974
 9 America/New_York     41.4     -74.0      99.2    38000               1924
10 America/Chicago      32.6     -85.5     201.     87451               1939
   Grass Dome 
   <lgl> <lgl>
 1 FALSE FALSE
 2 FALSE FALSE
 3 TRUE  FALSE
 4 FALSE FALSE
 5 FALSE FALSE
 6 TRUE  FALSE
 7 FALSE FALSE
 8 FALSE FALSE
 9 FALSE FALSE
10 TRUE  FALSE
# ℹ 124 more rows
…
