ds6
…
Besides this data set, another data set from collegefootballdata.com will also be used to add information to the draft data set. This data set contains data on every FBS school. For our research, the data on each school’s location will be needed. This data set was downloaded as a csv file and tidied up in a previous assignment. The read_csv function can be used to transfer the tidy version of that data set into a data frame.

fbs <- read_csv("fbs2.csv", show_col_types = FALSE)
fbs %>% print(width = Inf)

# A tibble: 134 × 19
   School         Mascot        Abbreviation Conference        Color1  Color2 
   <chr>          <chr>         <chr>        <chr>             <chr>   <chr>  
 1 Air Force      Falcons       AFA          Mountain West     #004a7b #ffffff
 2 Akron          Zips          AKR          Mid-American      #00285e #84754e
 3 Alabama        Crimson Tide  ALA          SEC               #9e1632 #ffffff
 4 App State      Mountaineers  APP          Sun Belt East     #ffcc00 #222222
 5 Arizona        Wildcats      ARIZ         Big 12            #0c234b #ab0520
 6 Arizona State  Sun Devils    ASU          Big 12            #8e0c3a #ffc72c
 7 Arkansas       Razorbacks    ARK          SEC               #a41f35 #ffffff
 8 Arkansas State Red Wolves    ARST         Sun Belt West     #e81018 #000000
 9 Army           Black Knights ARMY         American Athletic #ce9c00 #231f20
10 Auburn         Tigers        AUB          SEC               #002b5c #f26522
   Twitter          Stadium                  City             State   Zip
   <chr>            <chr>                    <chr>            <chr> <dbl>
 1 @AF_Football     Falcon Stadium           Colorado Springs CO    80840
 2 @ZipsFB          InfoCision Stadium       Akron            OH    44399
 3 @AlabamaFTBL     Bryant-Denny Stadium     Tuscaloosa       AL    35487
 4 @AppState_FB     Kidd Brewer Stadium      Boone            NC    28608
 5 @ArizonaFBall    Arizona Stadium          Tucson           AZ    85721
 6 @ASUFootball     Mountain America Stadium Tempe            AZ    85287
 7 @RazorbackFB     Razorback Stadium        Fayetteville     AR    72702
 8 @AStateFB        Centennial Bank Stadium  Jonesboro        AR    72404
 9 @ArmyWP_Football Michie Stadium           West Point       NY    10996
10 @AuburnFootball  Jordan-Hare Stadium      Auburn           AL    36849
   Timezone         Latitude Longitude Elevation Capacity Opening Grass Dome 
   <chr>               <dbl>     <dbl>     <dbl>    <dbl>   <dbl> <lgl> <lgl>
 1 America/Denver       39.0    -105.     2025.     46692    1962 FALSE FALSE
 2 America/New_York     41.1     -81.5     321.     30000    2009 FALSE FALSE
 3 America/Chicago      33.2     -87.6      70.1   101821    1929 TRUE  FALSE
 4 America/New_York     36.2     -81.7     991.     30000    1962 FALSE FALSE
 5 America/Phoenix      32.2    -111.      742.     50782    1928 FALSE FALSE
 6 America/Phoenix      33.4    -112.      360.     65870    1958 TRUE  FALSE
 7 America/Chicago      36.1     -94.2     404.     80000    1938 FALSE FALSE
 8 America/Chicago      35.8     -90.7      89.5    30382    1974 FALSE FALSE
 9 America/New_York     41.4     -74.0      99.2    38000    1924 FALSE FALSE
10 America/Chicago      32.6     -85.5     201.     87451    1939 TRUE  FALSE
# ℹ 124 more rows

These two data sets will be very useful, but they will not provide all the information we need. Further information will be found through my own research and added manually into the data set. Most of this information will come from Wikipedia.

Tidying the Data

Before we can start looking at this data, we must start by making it tidy. The first thing we can do is remove several unnecessary columns. The ID columns are unique identifiers that are not needed since we are not referencing the larger database, the Year column is unnecessary since we are only looking at 2024, and several of each player’s measurables including height, weight, and their rankings and grades are not relevant to our study. Therefore, all of these columns can be removed. There are also a couple of geography columns that can be removed. The vast majority of players are from the USA, and the few that are not can be specified elsewhere in the data set. We will also not be looking at counties in this project, so that column can be removed too.

draft <- select(draft, -c("CollegeAthleteId", "NflAthleteId", "CollegeId", "Year", "Height", "Weight", "PreDraftRanking", "PreDraftPositionRanking", "PreDraftGrade", "HometownInfo Country", "HometownInfo CountyFips"))
draft %>% print(width = Inf)

# A tibble: 257 × 12
   CollegeTeam    CollegeConference NflTeam     Overall Round  Pick
   <chr>          <chr>             <chr>         <dbl> <dbl> <dbl>
 1 USC            Pac-12            Chicago           1     1     1
 2 LSU            SEC               Washington        2     1     2
 3 North Carolina ACC               New England       3     1     3
 4 Ohio State     Big Ten           Arizona           4     1     4
 5 Notre Dame     FBS Independents  Los Angeles       5     1     5
 6 LSU            SEC               New York          6     1     6
 7 Alabama        SEC               Tennessee         7     1     7
 8 Washington     Pac-12            Atlanta           8     1     8
 9 Washington     Pac-12            Chicago           9     1     9
10 Michigan       Big Ten           Minnesota        10     1    10
   Name                Position         `HometownInfo City` `HometownInfo State`
   <chr>               <chr>            <chr>               <chr>               
 1 Caleb Williams      Quarterback      Washington          DC                  
 2 Jayden Daniels      Quarterback      San Bernardino      CA                  
 3 Drake Maye          Quarterback      Charlotte           NC                  
 4 Marvin Harrison Jr. Wide Receiver    Philadelphia        PA                  
 5 Joe Alt             Offensive Tackle North Oaks          MN                  
 6 Malik Nabers        Wide Receiver    Youngsville         LA                  
 7 JC Latham           Offensive Tackle Oak Creek           WI                  
 8 Michael Penix Jr.   Quarterback      Tampa               FL                  
 9 Rome Odunze         Wide Receiver    Las Vegas           NV                  
10 J.J. McCarthy       Quarterback      La Grange Park      IL                  
   `HometownInfo Latitude` `HometownInfo Longitude`
                     <dbl>                    <dbl>
 1                    38.9                    -77.0
 2                    34.1                   -117. 
 3                    35.2                    -80.8
 4                    40.0                    -75.2
 5                    45.1                    -93.1
 6                    30.1                    -92.0
 7                    42.9                    -87.9
 8                    27.9                    -82.5
 9                    36.2                   -115. 
10                    41.8                    -87.9
# ℹ 247 more rows

The next step is to change some column names. Several of the column names should be changed because they are too long or not specific enough. In fact, the Overall, Round, Pick, and Position columns are the only ones whose names do not need to be changed. Every other column will receive new names.

draft <- rename(draft, "College" = "CollegeTeam")
draft <- rename(draft, "Conference" = "CollegeConference")
draft <- rename(draft, "Team" = "NflTeam")
draft <- rename(draft, "Player" = "Name")
draft <- rename(draft, "HTCity" = "HometownInfo City")
draft <- rename(draft, "HTState" = "HometownInfo State")
draft <- rename(draft, "HTLatitude" = "HometownInfo Latitude")
draft <- rename(draft, "HTLongitude" = "HometownInfo Longitude")
draft %>% print(width = Inf)

# A tibble: 257 × 12
   College        Conference       Team        Overall Round  Pick
   <chr>          <chr>            <chr>         <dbl> <dbl> <dbl>
 1 USC            Pac-12           Chicago           1     1     1
 2 LSU            SEC              Washington        2     1     2
 3 North Carolina ACC              New England       3     1     3
 4 Ohio State     Big Ten          Arizona           4     1     4
 5 Notre Dame     FBS Independents Los Angeles       5     1     5
 6 LSU            SEC              New York          6     1     6
 7 Alabama        SEC              Tennessee         7     1     7
 8 Washington     Pac-12           Atlanta           8     1     8
 9 Washington     Pac-12           Chicago           9     1     9
10 Michigan       Big Ten          Minnesota        10     1    10
   Player              Position         HTCity         HTState HTLatitude
   <chr>               <chr>            <chr>          <chr>        <dbl>
 1 Caleb Williams      Quarterback      Washington     DC            38.9
 2 Jayden Daniels      Quarterback      San Bernardino CA            34.1
 3 Drake Maye          Quarterback      Charlotte      NC            35.2
 4 Marvin Harrison Jr. Wide Receiver    Philadelphia   PA            40.0
 5 Joe Alt             Offensive Tackle North Oaks     MN            45.1
 6 Malik Nabers        Wide Receiver    Youngsville    LA            30.1
 7 JC Latham           Offensive Tackle Oak Creek      WI            42.9
 8 Michael Penix Jr.   Quarterback      Tampa          FL            27.9
 9 Rome Odunze         Wide Receiver    Las Vegas      NV            36.2
10 J.J. McCarthy       Quarterback      La Grange Park IL            41.8
   HTLongitude
         <dbl>
 1       -77.0
 2      -117. 
 3       -80.8
 4       -75.2
 5       -93.1
 6       -92.0
 7       -87.9
 8       -82.5
 9      -115. 
10       -87.9
# ℹ 247 more rows

Now that the columns have been renamed, it is now time to start adding in more data. First of all, we will add in data from the fbs data set. We want to match each entry in the data set with the appropriate data from the City, State, Latitude, and Longitude columns from the fbs data set based on the College column. This can be done with a left join. This will not cover every college because not every college in the draft data set is in the FBS, so that data will have to be manually added in later.

draft <- draft %>% left_join(select(fbs, School, City, State, Latitude, Longitude), c("College" = "School"))
draft <- rename(draft, "AMCity" = "City")
draft <- rename(draft, "AMState" = "State")
draft <- rename(draft, "AMLatitude" = "Latitude")
draft <- rename(draft, "AMLongitude" = "Longitude")
draft %>% print(width = Inf)

# A tibble: 257 × 16
   College        Conference       Team        Overall Round  Pick
   <chr>          <chr>            <chr>         <dbl> <dbl> <dbl>
 1 USC            Pac-12           Chicago           1     1     1
 2 LSU            SEC              Washington        2     1     2
 3 North Carolina ACC              New England       3     1     3
 4 Ohio State     Big Ten          Arizona           4     1     4
 5 Notre Dame     FBS Independents Los Angeles       5     1     5
 6 LSU            SEC              New York          6     1     6
 7 Alabama        SEC              Tennessee         7     1     7
 8 Washington     Pac-12           Atlanta           8     1     8
 9 Washington     Pac-12           Chicago           9     1     9
10 Michigan       Big Ten          Minnesota        10     1    10
   Player              Position         HTCity         HTState HTLatitude
   <chr>               <chr>            <chr>          <chr>        <dbl>
 1 Caleb Williams      Quarterback      Washington     DC            38.9
 2 Jayden Daniels      Quarterback      San Bernardino CA            34.1
 3 Drake Maye          Quarterback      Charlotte      NC            35.2
 4 Marvin Harrison Jr. Wide Receiver    Philadelphia   PA            40.0
 5 Joe Alt             Offensive Tackle North Oaks     MN            45.1
 6 Malik Nabers        Wide Receiver    Youngsville    LA            30.1
 7 JC Latham           Offensive Tackle Oak Creek      WI            42.9
 8 Michael Penix Jr.   Quarterback      Tampa          FL            27.9
 9 Rome Odunze         Wide Receiver    Las Vegas      NV            36.2
10 J.J. McCarthy       Quarterback      La Grange Park IL            41.8
   HTLongitude AMCity      AMState AMLatitude AMLongitude
         <dbl> <chr>       <chr>        <dbl>       <dbl>
 1       -77.0 Los Angeles CA            34.0      -118. 
 2      -117.  Baton Rouge LA            30.4       -91.2
 3       -80.8 Chapel Hill NC            35.9       -79.0
 4       -75.2 Columbus    OH            40.0       -83.0
 5       -93.1 Notre Dame  IN            41.7       -86.2
 6       -92.0 Baton Rouge LA            30.4       -91.2
 7       -87.9 Tuscaloosa  AL            33.2       -87.6
 8       -82.5 Seattle     WA            47.7      -122. 
 9      -115.  Seattle     WA            47.7      -122. 
10       -87.9 Ann Arbor   MI            42.3       -83.7
# ℹ 247 more rows
…
Now that we have all the columns we need, we can rearrange these columns into an order that makes more sense. We want to be able to identify each pick from the first column, so the Overall column should come first. This would be followed by other identifiers including the Round, Pick, Player, and Position columns. The Team column would come next followed by the NFL geography columns. The College and Conference columns would come after that followed by the alma mater geography columns. Finally, the hometown geography columns will come last.

draft <- select(draft, Overall, Round, Pick, Player, Position, Team, NFLCity, NFLState, NFLLatitude, NFLLongitude, College, Conference, AMCity, AMState, AMLatitude, AMLongitude, HTCity, HTState, HTLatitude, HTLongitude)
draft %>% print(width = Inf)

# A tibble: 257 × 20
   Overall Round  Pick Player              Position         Team       
     <dbl> <dbl> <dbl> <chr>               <chr>            <chr>      
 1       1     1     1 Caleb Williams      Quarterback      Chicago    
 2       2     1     2 Jayden Daniels      Quarterback      Washington 
 3       3     1     3 Drake Maye          Quarterback      New England
 4       4     1     4 Marvin Harrison Jr. Wide Receiver    Arizona    
 5       5     1     5 Joe Alt             Offensive Tackle Los Angeles
 6       6     1     6 Malik Nabers        Wide Receiver    New York   
 7       7     1     7 JC Latham           Offensive Tackle Tennessee  
 8       8     1     8 Michael Penix Jr.   Quarterback      Atlanta    
 9       9     1     9 Rome Odunze         Wide Receiver    Chicago    
10      10     1    10 J.J. McCarthy       Quarterback      Minnesota  
   NFLCity         NFLState NFLLatitude NFLLongitude College       
   <chr>           <chr>          <dbl>        <dbl> <chr>         
 1 Chicago         IL              41.9        -87.6 USC           
 2 Landover        MD              38.9        -76.9 LSU           
 3 Foxborough      MA              42.1        -71.3 North Carolina
 4 Glendale        AZ              33.5       -112.  Ohio State    
 5 Inglewood       CA              34.0       -118.  Notre Dame    
 6 East Rutherford NJ              40.8        -74.1 LSU           
 7 Nashville       TN              36.2        -86.8 Alabama       
 8 Atlanta         GA              33.8        -84.4 Washington    
 9 Chicago         IL              41.9        -87.6 Washington    
10 Minneapolis     MN              45.0        -93.3 Michigan      
   Conference       AMCity      AMState AMLatitude AMLongitude HTCity        
   <chr>            <chr>       <chr>        <dbl>       <dbl> <chr>         
 1 Pac-12           Los Angeles CA            34.0      -118.  Washington    
 2 SEC              Baton Rouge LA            30.4       -91.2 San Bernardino
 3 ACC              Chapel Hill NC            35.9       -79.0 Charlotte     
 4 Big Ten          Columbus    OH            40.0       -83.0 Philadelphia  
 5 FBS Independents Notre Dame  IN            41.7       -86.2 North Oaks    
 6 SEC              Baton Rouge LA            30.4       -91.2 Youngsville   
 7 SEC              Tuscaloosa  AL            33.2       -87.6 Oak Creek     
 8 Pac-12           Seattle     WA            47.7      -122.  Tampa         
 9 Pac-12           Seattle     WA            47.7      -122.  Las Vegas     
10 Big Ten          Ann Arbor   MI            42.3       -83.7 La Grange Park
   HTState HTLatitude HTLongitude
   <chr>        <dbl>       <dbl>
 1 DC            38.9       -77.0
 2 CA            34.1      -117. 
 3 NC            35.2       -80.8
 4 PA            40.0       -75.2
 5 MN            45.1       -93.1
 6 LA            30.1       -92.0
 7 WI            42.9       -87.9
 8 FL            27.9       -82.5
 9 NV            36.2      -115. 
10 IL            41.8       -87.9
# ℹ 247 more rows
…
