ds3
…
This histogram uses a bin width of 100. No drop can be seen in this histogram where there should be one.

Exercise 3

How many diamonds are 0.99 carat? How many are 1 carat? What do you think is the cause of the difference?

filter(diamonds, carat == .99)

# A tibble: 23 × 10
   carat cut       color clarity depth table price     x     y     z
   <dbl> <ord>     <ord> <ord>   <dbl> <dbl> <int> <dbl> <dbl> <dbl>
 1  0.99 Fair      I     SI2      68.1    56  2811  6.21  6.06  4.18
 2  0.99 Fair      J     SI1      55      61  2812  6.72  6.67  3.68
 3  0.99 Fair      J     SI1      58      67  2949  6.57  6.5   3.79
 4  0.99 Fair      I     SI1      60.7    66  3337  6.42  6.34  3.87
 5  0.99 Fair      H     VS2      71.6    57  3593  5.94  5.8   4.2 
 6  0.99 Very Good J     SI1      60.3    57  4002  6.44  6.49  3.9 
 7  0.99 Good      F     SI2      63.3    54  4052  6.36  6.43  4.05
 8  0.99 Premium   F     SI2      60.6    61  4075  6.45  6.38  3.89
 9  0.99 Ideal     I     SI1      61.8    57  4763  6.4   6.42  3.96
10  0.99 Very Good E     SI2      61.8    59  4780  6.3   6.33  3.9 
# ℹ 13 more rows

There are only 23 .99 carat diamonds while there 1,558 1 carat diamonds.

filter(diamonds, carat == 1)

# A tibble: 1,558 × 10
   carat cut     color clarity depth table price     x     y     z
   <dbl> <ord>   <ord> <ord>   <dbl> <dbl> <int> <dbl> <dbl> <dbl>
 1     1 Premium I     SI2      58.2    60  2795  6.61  6.55  3.83
 2     1 Premium J     SI2      62.3    58  2801  6.45  6.34  3.98
 3     1 Fair    G     I1       66.4    59  2808  6.16  6.09  4.07
 4     1 Fair    J     VS2      65.7    59  2811  6.14  6.07  4.01
 5     1 Premium H     I1       61.3    60  2818  6.43  6.39  3.93
 6     1 Fair    H     SI2      65.3    62  2818  6.34  6.12  4.08
 7     1 Premium F     I1       58.9    60  2841  6.6   6.55  3.87
 8     1 Fair    G     SI2      67.8    61  2856  5.96  5.9   4.02
 9     1 Fair    I     SI1      67.9    62  2856  6.19  6.03  4.15
10     1 Fair    H     SI2      66.1    56  2856  6.21  5.97  4.04
# ℹ 1,548 more rows
…
From this data, there are a few observations that can be made. Wisconsin has the highest average percent with Illinois and Ohio being practically tied for last. However, Wisconsin does have the lowest floor. Michigan has the highest ceiling and highest floor while Ohio has the lowest ceiling. The following table shows the ten counties with the hightest percent of people who are college educated.

select(arrange(midwest, desc(percollege)), county, state, percollege)

# A tibble: 437 × 3
   county    state percollege
   <chr>     <chr>      <dbl>
 1 WASHTENAW MI          48.1
 2 DANE      WI          43.6
 3 DU PAGE   IL          42.8
 4 HAMILTON  IN          42.1
 5 CHAMPAIGN IL          41.3
 6 LAKE      IL          37.8
 7 MONROE    IN          37.7
 8 OZAUKEE   WI          37.4
 9 OAKLAND   MI          37.0
10 INGHAM    MI          36.8
# ℹ 427 more rows

Unsurprisingly, all of these counties are either home to or near major universities. Washtenaw, Dane, Champaign, and Monroe counties are each home to thier state’s respective flagship universities. In fact, Ohio is the only state whose flagship university is not included in this list. Oakland and Ingham counties are also home to major universities. Meanwhile, Du Page, Hamilton, Lake, and Ozaukee counties are all suburbs of their state’s respective largest cities which are home to several major universities. To get a closer look at this, we will look at each of these five states individually.

Illinois

select(arrange(filter(midwest, state == "IL"), desc(percollege)), county, percollege)

# A tibble: 102 × 2
   county    percollege
   <chr>          <dbl>
 1 DU PAGE         42.8
 2 CHAMPAIGN       41.3
 3 LAKE            37.8
 4 JACKSON         36.6
 5 MCLEAN          33.8
 6 DE KALB         32.8
 7 SANGAMON        29.0
 8 MCHENRY         28.1
 9 COOK            28.0
10 MCDONOUGH       27.9
# ℹ 92 more rows
…
Illinois Counties

Indiana

select(arrange(filter(midwest, state == "IN"), desc(percollege)), county, percollege)

# A tibble: 92 × 2
   county     percollege
   <chr>           <dbl>
 1 HAMILTON         42.1
 2 MONROE           37.7
 3 TIPPECANOE       36.2
 4 BOONE            27.8
 5 ALLEN            27.4
 6 MARION           26.7
 7 ST JOSEPH        24.6
 8 PORTER           24.5
 9 HENDRICKS        24.2
10 WARRICK          23.8
# ℹ 82 more rows
…
Indiana Counties

Michigan

select(arrange(filter(midwest, state == "MI"), desc(percollege)), county, percollege)

# A tibble: 83 × 2
   county         percollege
   <chr>               <dbl>
 1 WASHTENAW            48.1
 2 OAKLAND              37.0
 3 INGHAM               36.8
 4 MIDLAND              35.6
 5 KALAMAZOO            34.6
 6 LEELANAU             32.6
 7 GRAND TRAVERSE       31.0
 8 KENT                 28.6
 9 LIVINGSTON           27.6
10 ISABELLA             27.2
# ℹ 73 more rows
…
Michigan Counties

Ohio

select(arrange(filter(midwest, state == "OH"), desc(percollege)), county, percollege)

# A tibble: 88 × 2
   county     percollege
   <chr>           <dbl>
 1 FRANKLIN         32.2
 2 GREENE           32.0
 3 GEAUGA           31.6
 4 DELAWARE         31.6
 5 HAMILTON         29.8
 6 ATHENS           29.1
 7 WOOD             29.1
 8 MONTGOMERY       26.6
 9 CUYAHOGA         25.1
10 SUMMIT           24.7
# ℹ 78 more rows
…
Ohio Counties

Wisconsin

select(arrange(filter(midwest, state == "WI"), desc(percollege)), county, percollege)

# A tibble: 72 × 2
   county     percollege
   <chr>           <dbl>
 1 DANE             43.6
 2 OZAUKEE          37.4
 3 WAUKESHA         35.4
 4 LA CROSSE        30.5
 5 EAU CLAIRE       29.9
 6 ST CROIX         28.6
 7 BROWN            26.3
 8 DUNN             26.3
 9 BAYFIELD         25.8
10 MILWAUKEE        25.4
# ℹ 62 more rows
…
